{
  "name": "tests",
  "version": "1.0.0",
  "description": "",
  "main": "index.js",
  "scripts": {
    "cypres:open": "cypress open"
  },
  "author": "",
  "license": "ISC",
  "dependencies": {
    "cypress": "^8.0.0"
  }
}
